-------------------- Auto-Git Log --------------------
		Fri Oct 25 2019 10:58:15 GMT+0530 (India Standard Time)
------------------------------------------------------

Modified files:


Created files:
* .autogit/logs/log-25-9-2019-10-27-59.txt


Deleted files:


Renamed files:
