-------------------- Auto-Git Log --------------------
		Tue Oct 29 2019 17:38:55 GMT+0530 (India Standard Time)
------------------------------------------------------

Modified files:


Created files:
* .autogit/logs/log-29-9-2019-17-8-48.txt


Deleted files:


Renamed files:
