-------------------- Auto-Git Log --------------------
		Thu Oct 24 2019 20:26:07 GMT+0530 (India Standard Time)
------------------------------------------------------

Modified files:


Created files:
* .autogit/logs/log-24-9-2019-19-56-5.txt


Deleted files:


Renamed files:
