-------------------- Auto-Git Log --------------------
		Tue Oct 29 2019 13:23:26 GMT+0530 (India Standard Time)
------------------------------------------------------

Modified files:


Created files:
* .autogit/logs/log-29-9-2019-12-53-21.txt


Deleted files:


Renamed files:
