-------------------- Auto-Git Log --------------------
		Fri Oct 25 2019 07:57:33 GMT+0530 (India Standard Time)
------------------------------------------------------

Modified files:


Created files:
* .autogit/logs/log-25-9-2019-7-27-11.txt


Deleted files:


Renamed files:
