-------------------- Auto-Git Log --------------------
		Tue Oct 29 2019 14:23:38 GMT+0530 (India Standard Time)
------------------------------------------------------

Modified files:


Created files:
* .autogit/logs/log-29-9-2019-13-53-32.txt


Deleted files:


Renamed files:
